*-*-*- MFCC *-*-*-
**** window 21 *****
(9472, 32)
redundant frames = 1
train frames:  (451, 21, 32)
Gradient error: 0.05940189085718069
RUNNING THE L-BFGS-B CODE

           * * *

Machine precision = 2.220D-16
 N =        67301     M =           10

At X0         0 variables are exactly at the bounds

At iterate    0    f=  3.38856D+04    |proj g|=  2.01752D+01

At iterate    1    f=  3.25766D+04    |proj g|=  4.40019D+00

At iterate    2    f=  1.97751D+04    |proj g|=  3.42430D+00

At iterate    3    f=  4.07814D+02    |proj g|=  4.19017D+00

At iterate    4    f=  1.43091D+02    |proj g|=  1.81814D+00

At iterate    5    f=  6.38257D+01    |proj g|=  1.30979D+00

At iterate    6    f=  1.98578D+01    |proj g|=  1.00000D+00

At iterate    7    f=  1.58590D+01    |proj g|=  1.00000D+00

At iterate    8    f=  1.44085D+01    |proj g|=  1.00000D+00

At iterate    9    f=  1.08392D+01    |proj g|=  1.00000D+00

At iterate   10    f=  7.60834D+00    |proj g|=  1.00000D+00

At iterate   11    f=  6.12119D+00    |proj g|=  7.78271D-01

At iterate   12    f=  5.66546D+00    |proj g|=  1.00566D+00

At iterate   13    f= -1.71732D+00    |proj g|=  2.21508D+00

At iterate   14    f= -4.22117D+00    |proj g|=  7.78271D-01

At iterate   15    f= -5.56121D+00    |proj g|=  1.57713D+00

At iterate   16    f= -8.09388D+00    |proj g|=  5.92905D+00

At iterate   17    f= -1.05688D+01    |proj g|=  2.79379D-01

At iterate   18    f= -1.08882D+01    |proj g|=  7.22838D-01

At iterate   19    f= -1.10903D+01    |proj g|=  2.05696D-01

At iterate   20    f= -1.11405D+01    |proj g|=  3.25293D-01

At iterate   21    f= -1.13881D+01    |proj g|=  7.78271D-01

At iterate   22    f= -1.14887D+01    |proj g|=  6.11973D-01

At iterate   23    f= -1.15439D+01    |proj g|=  4.45676D-01

At iterate   24    f= -1.16050D+01    |proj g|=  1.98284D-01

At iterate   25    f= -1.16454D+01    |proj g|=  4.29360D-01

At iterate   26    f= -1.16771D+01    |proj g|=  6.11973D-01

At iterate   27    f= -1.17462D+01    |proj g|=  3.90244D-01

At iterate   28    f= -1.17768D+01    |proj g|=  2.74945D-01

At iterate   29    f= -1.18147D+01    |proj g|=  1.40593D-01

At iterate   30    f= -1.18373D+01    |proj g|=  3.90244D-01

At iterate   31    f= -1.18503D+01    |proj g|=  5.52106D-01

At iterate   32    f= -1.18656D+01    |proj g|=  3.34812D-01

At iterate   33    f= -1.18780D+01    |proj g|=  6.11973D-01

At iterate   34    f= -1.18988D+01    |proj g|=  6.62971D-01

At iterate   35    f= -1.19167D+01    |proj g|=  1.76032D-01

At iterate   36    f= -1.19257D+01    |proj g|=  5.52106D-01

At iterate   37    f= -1.19294D+01    |proj g|=  4.96674D-01

At iterate   38    f= -1.19364D+01    |proj g|=  2.03992D-01

At iterate   39    f= -1.19435D+01    |proj g|=  1.28276D-01

At iterate   40    f= -1.19516D+01    |proj g|=  6.07539D-01

At iterate   41    f= -1.19556D+01    |proj g|=  3.34812D-01

At iterate   42    f= -1.19626D+01    |proj g|=  9.81838D-02

At iterate   43    f= -1.19628D+01    |proj g|=  9.40133D-01

At iterate   44    f= -1.19727D+01    |proj g|=  1.30954D-01

At iterate   45    f= -1.19780D+01    |proj g|=  2.38117D-01

At iterate   46    f= -1.19836D+01    |proj g|=  3.34812D-01

At iterate   47    f= -1.19865D+01    |proj g|=  1.68514D-01

At iterate   48    f= -1.19901D+01    |proj g|=  4.96674D-01

At iterate   49    f= -1.19948D+01    |proj g|=  4.45676D-01

At iterate   50    f= -1.19981D+01    |proj g|=  1.76684D-01

At iterate   51    f= -1.20016D+01    |proj g|=  2.23947D-01

At iterate   52    f= -1.20057D+01    |proj g|=  4.41242D-01

At iterate   53    f= -1.20089D+01    |proj g|=  1.87977D-01

At iterate   54    f= -1.20125D+01    |proj g|=  1.51645D-01

At iterate   55    f= -1.20150D+01    |proj g|=  2.23947D-01

At iterate   56    f= -1.20164D+01    |proj g|=  2.06158D-01

At iterate   57    f= -1.20186D+01    |proj g|=  3.34812D-01

At iterate   58    f= -1.20187D+01    |proj g|=  8.29268D-01

At iterate   59    f= -1.20230D+01    |proj g|=  1.29694D-01

At iterate   60    f= -1.20258D+01    |proj g|=  3.90244D-01

At iterate   61    f= -1.20269D+01    |proj g|=  1.02978D-01

At iterate   62    f= -1.20289D+01    |proj g|=  2.19512D-01

At iterate   63    f= -1.20316D+01    |proj g|=  1.84118D-01

At iterate   64    f= -1.20331D+01    |proj g|=  8.84701D-01

At iterate   65    f= -1.20357D+01    |proj g|=  1.02982D-01

At iterate   66    f= -1.20379D+01    |proj g|=  1.68514D-01

At iterate   67    f= -1.20390D+01    |proj g|=  9.99280D-02

At iterate   68    f= -1.20416D+01    |proj g|=  1.32667D-01

At iterate   69    f= -1.20430D+01    |proj g|=  5.56541D-01

At iterate   70    f= -1.20452D+01    |proj g|=  1.01385D-01

At iterate   71    f= -1.20467D+01    |proj g|=  6.62971D-01

At iterate   72    f= -1.20469D+01    |proj g|=  8.84701D-01

At iterate   73    f= -1.20497D+01    |proj g|=  1.41238D-01

At iterate   74    f= -1.20516D+01    |proj g|=  5.56541D-01

At iterate   75    f= -1.20531D+01    |proj g|=  2.24112D-01

At iterate   76    f= -1.20550D+01    |proj g|=  1.38476D-01

At iterate   77    f= -1.20568D+01    |proj g|=  1.64080D-01

At iterate   78    f= -1.20579D+01    |proj g|=  1.30359D-01

At iterate   79    f= -1.20594D+01    |proj g|=  1.68514D-01

At iterate   80    f= -1.20609D+01    |proj g|=  4.41242D-01

At iterate   81    f= -1.20634D+01    |proj g|=  1.40237D-01

At iterate   82    f= -1.20654D+01    |proj g|=  7.73836D-01

At iterate   83    f= -1.20682D+01    |proj g|=  1.93386D-01

At iterate   84    f= -1.20705D+01    |proj g|=  1.19141D-01

At iterate   85    f= -1.20712D+01    |proj g|=  2.74945D-01

At iterate   86    f= -1.20725D+01    |proj g|=  2.79379D-01

At iterate   87    f= -1.20746D+01    |proj g|=  1.68514D-01

At iterate   88    f= -1.20766D+01    |proj g|=  2.79379D-01

At iterate   89    f= -1.20779D+01    |proj g|=  5.52106D-01

At iterate   90    f= -1.20807D+01    |proj g|=  3.85809D-01

At iterate   91    f= -1.20835D+01    |proj g|=  2.19512D-01

At iterate   92    f= -1.20864D+01    |proj g|=  3.90244D-01

At iterate   93    f= -1.20882D+01    |proj g|=  1.56688D-01

At iterate   94    f= -1.20893D+01    |proj g|=  2.19512D-01

At iterate   95    f= -1.20909D+01    |proj g|=  4.45676D-01

At iterate   96    f= -1.20921D+01    |proj g|=  1.35574D-01

At iterate   97    f= -1.20931D+01    |proj g|=  1.11106D-01

At iterate   98    f= -1.20945D+01    |proj g|=  1.75799D-01

At iterate   99    f= -1.20962D+01    |proj g|=  1.33474D-01

At iterate  100    f= -1.20977D+01    |proj g|=  1.64080D-01

At iterate  101    f= -1.20989D+01    |proj g|=  2.74945D-01

At iterate  102    f= -1.21002D+01    |proj g|=  4.45676D-01

At iterate  103    f= -1.21022D+01    |proj g|=  2.19512D-01

At iterate  104    f= -1.21038D+01    |proj g|=  1.16186D+00

At iterate  105    f= -1.21079D+01    |proj g|=  5.52106D-01

At iterate  106    f= -1.21108D+01    |proj g|=  1.68514D-01

At iterate  107    f= -1.21128D+01    |proj g|=  2.00868D-01

At iterate  108    f= -1.21144D+01    |proj g|=  1.15972D-01

At iterate  109    f= -1.21169D+01    |proj g|=  1.64606D-01

At iterate  110    f= -1.21200D+01    |proj g|=  1.13082D-01

At iterate  111    f= -1.21212D+01    |proj g|=  4.41242D-01

At iterate  112    f= -1.21251D+01    |proj g|=  9.48179D-02

At iterate  113    f= -1.21280D+01    |proj g|=  3.90244D-01

At iterate  114    f= -1.21321D+01    |proj g|=  3.90244D-01

At iterate  115    f= -1.21343D+01    |proj g|=  4.96674D-01

At iterate  116    f= -1.21392D+01    |proj g|=  5.52106D-01

At iterate  117    f= -1.21437D+01    |proj g|=  3.34812D-01

At iterate  118    f= -1.21480D+01    |proj g|=  1.10596D-01

At iterate  119    f= -1.21545D+01    |proj g|=  6.07539D-01

At iterate  120    f= -1.21622D+01    |proj g|=  6.62971D-01

At iterate  121    f= -1.21716D+01    |proj g|=  4.96674D-01

At iterate  122    f= -1.21828D+01    |proj g|=  3.30377D-01

At iterate  123    f= -1.21924D+01    |proj g|=  7.89642D-02

At iterate  124    f= -1.21985D+01    |proj g|=  9.28169D-02

At iterate  125    f= -1.22029D+01    |proj g|=  2.23947D-01

At iterate  126    f= -1.22074D+01    |proj g|=  5.56541D-01

At iterate  127    f= -1.22114D+01    |proj g|=  2.79379D-01

At iterate  128    f= -1.22149D+01    |proj g|=  2.79379D-01

At iterate  129    f= -1.22176D+01    |proj g|=  5.56541D-01

At iterate  130    f= -1.22213D+01    |proj g|=  3.30377D-01

At iterate  131    f= -1.22261D+01    |proj g|=  1.08647D-01

At iterate  132    f= -1.22310D+01    |proj g|=  2.19512D-01

At iterate  133    f= -1.22362D+01    |proj g|=  3.85809D-01

At iterate  134    f= -1.22389D+01    |proj g|=  7.22838D-01

At iterate  135    f= -1.22444D+01    |proj g|=  2.74945D-01

At iterate  136    f= -1.22496D+01    |proj g|=  1.02646D-01

At iterate  137    f= -1.22506D+01    |proj g|=  3.34812D-01

At iterate  138    f= -1.22530D+01    |proj g|=  1.68514D-01

At iterate  139    f= -1.22539D+01    |proj g|=  4.45676D-01

At iterate  140    f= -1.22557D+01    |proj g|=  8.56795D-02

At iterate  141    f= -1.22575D+01    |proj g|=  3.85809D-01

At iterate  142    f= -1.22609D+01    |proj g|=  1.20319D-01

At iterate  143    f= -1.22639D+01    |proj g|=  1.64080D-01

At iterate  144    f= -1.22660D+01    |proj g|=  2.23947D-01

At iterate  145    f= -1.22677D+01    |proj g|=  3.85809D-01

At iterate  146    f= -1.22723D+01    |proj g|=  3.30377D-01

At iterate  147    f= -1.22756D+01    |proj g|=  1.08647D-01

At iterate  148    f= -1.22789D+01    |proj g|=  1.68514D-01

At iterate  149    f= -1.22820D+01    |proj g|=  1.00541D-01

At iterate  150    f= -1.22847D+01    |proj g|=  1.12813D-01

At iterate  151    f= -1.22885D+01    |proj g|=  1.13082D-01

At iterate  152    f= -1.22919D+01    |proj g|=  1.13082D-01

At iterate  153    f= -1.22944D+01    |proj g|=  2.23947D-01

At iterate  154    f= -1.22969D+01    |proj g|=  9.03981D-02

At iterate  155    f= -1.23003D+01    |proj g|=  1.64080D-01

At iterate  156    f= -1.23020D+01    |proj g|=  2.74945D-01

At iterate  157    f= -1.23041D+01    |proj g|=  4.96674D-01

At iterate  158    f= -1.23067D+01    |proj g|=  1.68514D-01

At iterate  159    f= -1.23090D+01    |proj g|=  3.90244D-01

At iterate  160    f= -1.23097D+01    |proj g|=  2.74945D-01

At iterate  161    f= -1.23125D+01    |proj g|=  3.90244D-01

At iterate  162    f= -1.23166D+01    |proj g|=  5.01109D-01

At iterate  163    f= -1.23176D+01    |proj g|=  4.41242D-01

At iterate  164    f= -1.23209D+01    |proj g|=  9.00188D-02

At iterate  165    f= -1.23243D+01    |proj g|=  2.74945D-01

At iterate  166    f= -1.23286D+01    |proj g|=  1.03710D-01

At iterate  167    f= -1.23324D+01    |proj g|=  3.90244D-01

At iterate  168    f= -1.23336D+01    |proj g|=  7.88339D-02

At iterate  169    f= -1.23363D+01    |proj g|=  2.79379D-01

At iterate  170    f= -1.23385D+01    |proj g|=  3.34812D-01

At iterate  171    f= -1.23399D+01    |proj g|=  5.56541D-01

At iterate  172    f= -1.23410D+01    |proj g|=  9.36083D-02

At iterate  173    f= -1.23435D+01    |proj g|=  8.01308D-02

At iterate  174    f= -1.23466D+01    |proj g|=  3.34812D-01

At iterate  175    f= -1.23481D+01    |proj g|=  1.64080D-01

At iterate  176    f= -1.23501D+01    |proj g|=  3.30377D-01

At iterate  177    f= -1.23517D+01    |proj g|=  2.79379D-01

At iterate  178    f= -1.23531D+01    |proj g|=  1.64080D-01

At iterate  179    f= -1.23541D+01    |proj g|=  2.19512D-01

At iterate  180    f= -1.23556D+01    |proj g|=  2.79379D-01

At iterate  181    f= -1.23572D+01    |proj g|=  3.34812D-01

At iterate  182    f= -1.23584D+01    |proj g|=  2.19512D-01

At iterate  183    f= -1.23590D+01    |proj g|=  3.30377D-01

At iterate  184    f= -1.23605D+01    |proj g|=  1.13082D-01

At iterate  185    f= -1.23612D+01    |proj g|=  1.68514D-01

At iterate  186    f= -1.23620D+01    |proj g|=  2.79379D-01

At iterate  187    f= -1.23635D+01    |proj g|=  1.13082D-01

At iterate  188    f= -1.23644D+01    |proj g|=  4.41242D-01

At iterate  189    f= -1.23663D+01    |proj g|=  2.19512D-01

At iterate  190    f= -1.23674D+01    |proj g|=  8.94377D-02

At iterate  191    f= -1.23683D+01    |proj g|=  1.68514D-01

At iterate  192    f= -1.23688D+01    |proj g|=  1.28680D-01

At iterate  193    f= -1.23697D+01    |proj g|=  4.96674D-01

At iterate  194    f= -1.23700D+01    |proj g|=  2.79379D-01

At iterate  195    f= -1.23711D+01    |proj g|=  1.08647D-01

At iterate  196    f= -1.23720D+01    |proj g|=  1.13082D-01

At iterate  197    f= -1.23728D+01    |proj g|=  4.41242D-01

At iterate  198    f= -1.23735D+01    |proj g|=  1.16405D-01

At iterate  199    f= -1.23742D+01    |proj g|=  1.68514D-01

At iterate  200    f= -1.23753D+01    |proj g|=  1.13082D-01

At iterate  201    f= -1.23760D+01    |proj g|=  9.40133D-01

At iterate  202    f= -1.23775D+01    |proj g|=  5.52106D-01

At iterate  203    f= -1.23785D+01    |proj g|=  1.10937D-01

At iterate  204    f= -1.23800D+01    |proj g|=  1.64080D-01

At iterate  205    f= -1.23811D+01    |proj g|=  3.90244D-01

At iterate  206    f= -1.23824D+01    |proj g|=  1.05954D-01

At iterate  207    f= -1.23830D+01    |proj g|=  7.18404D-01

At iterate  208    f= -1.23848D+01    |proj g|=  3.34812D-01

At iterate  209    f= -1.23859D+01    |proj g|=  5.56541D-01

At iterate  210    f= -1.23867D+01    |proj g|=  6.07539D-01

At iterate  211    f= -1.23880D+01    |proj g|=  1.68514D-01

At iterate  212    f= -1.23894D+01    |proj g|=  3.34812D-01

At iterate  213    f= -1.23898D+01    |proj g|=  4.96674D-01

At iterate  214    f= -1.23909D+01    |proj g|=  1.13082D-01

At iterate  215    f= -1.23918D+01    |proj g|=  1.13082D-01

At iterate  216    f= -1.23926D+01    |proj g|=  9.45545D-02

At iterate  217    f= -1.23937D+01    |proj g|=  1.08647D-01

At iterate  218    f= -1.23948D+01    |proj g|=  2.23947D-01

At iterate  219    f= -1.23950D+01    |proj g|=  2.19512D-01

At iterate  220    f= -1.23965D+01    |proj g|=  2.19512D-01

At iterate  221    f= -1.23974D+01    |proj g|=  2.23947D-01

At iterate  222    f= -1.23984D+01    |proj g|=  2.79379D-01

At iterate  223    f= -1.23993D+01    |proj g|=  1.68514D-01

At iterate  224    f= -1.24000D+01    |proj g|=  1.08647D-01

At iterate  225    f= -1.24001D+01    |proj g|=  7.18404D-01

At iterate  226    f= -1.24016D+01    |proj g|=  2.19512D-01

At iterate  227    f= -1.24023D+01    |proj g|=  4.45676D-01

At iterate  228    f= -1.24041D+01    |proj g|=  1.68514D-01

At iterate  229    f= -1.24047D+01    |proj g|=  2.19512D-01

At iterate  230    f= -1.24054D+01    |proj g|=  8.53262D-02

At iterate  231    f= -1.24058D+01    |proj g|=  2.23947D-01

At iterate  232    f= -1.24062D+01    |proj g|=  3.30377D-01

At iterate  233    f= -1.24070D+01    |proj g|=  1.08647D-01

At iterate  234    f= -1.24072D+01    |proj g|=  1.09437D-01

At iterate  235    f= -1.24076D+01    |proj g|=  6.67406D-01

At iterate  236    f= -1.24078D+01    |proj g|=  1.09208D-01

At iterate  237    f= -1.24086D+01    |proj g|=  9.79394D-02

At iterate  238    f= -1.24092D+01    |proj g|=  2.23947D-01

At iterate  239    f= -1.24097D+01    |proj g|=  5.56541D-01

At iterate  240    f= -1.24102D+01    |proj g|=  2.19512D-01

At iterate  241    f= -1.24108D+01    |proj g|=  3.85809D-01

At iterate  242    f= -1.24115D+01    |proj g|=  3.85809D-01

At iterate  243    f= -1.24122D+01    |proj g|=  3.30377D-01

At iterate  244    f= -1.24128D+01    |proj g|=  4.96674D-01

At iterate  245    f= -1.24135D+01    |proj g|=  1.21044D-01

At iterate  246    f= -1.24141D+01    |proj g|=  7.96459D-02

At iterate  247    f= -1.24147D+01    |proj g|=  3.34812D-01

At iterate  248    f= -1.24150D+01    |proj g|=  1.68514D-01

At iterate  249    f= -1.24163D+01    |proj g|=  9.97531D-02

At iterate  250    f= -1.24168D+01    |proj g|=  7.17452D-02

At iterate  251    f= -1.24175D+01    |proj g|=  2.79379D-01

At iterate  252    f= -1.24180D+01    |proj g|=  2.23947D-01

At iterate  253    f= -1.24186D+01    |proj g|=  3.34812D-01

At iterate  254    f= -1.24192D+01    |proj g|=  1.68514D-01

At iterate  255    f= -1.24195D+01    |proj g|=  3.30377D-01

At iterate  256    f= -1.24197D+01    |proj g|=  1.64080D-01

At iterate  257    f= -1.24201D+01    |proj g|=  1.13082D-01

At iterate  258    f= -1.24204D+01    |proj g|=  2.79379D-01

At iterate  259    f= -1.24206D+01    |proj g|=  4.45676D-01

At iterate  260    f= -1.24209D+01    |proj g|=  9.02658D-02

At iterate  261    f= -1.24211D+01    |proj g|=  3.85809D-01

At iterate  262    f= -1.24215D+01    |proj g|=  1.13082D-01

At iterate  263    f= -1.24217D+01    |proj g|=  3.90244D-01

At iterate  264    f= -1.24220D+01    |proj g|=  2.19512D-01

At iterate  265    f= -1.24222D+01    |proj g|=  8.43295D-02

At iterate  266    f= -1.24225D+01    |proj g|=  7.73836D-01

At iterate  267    f= -1.24228D+01    |proj g|=  9.21732D-02

At iterate  268    f= -1.24232D+01    |proj g|=  1.68514D-01

At iterate  269    f= -1.24234D+01    |proj g|=  9.13196D-02

At iterate  270    f= -1.24239D+01    |proj g|=  2.19512D-01

At iterate  271    f= -1.24242D+01    |proj g|=  2.74945D-01

At iterate  272    f= -1.24248D+01    |proj g|=  2.23947D-01

At iterate  273    f= -1.24251D+01    |proj g|=  1.64080D-01

At iterate  274    f= -1.24256D+01    |proj g|=  2.23947D-01

At iterate  275    f= -1.24260D+01    |proj g|=  5.52106D-01

At iterate  276    f= -1.24266D+01    |proj g|=  3.30377D-01

At iterate  277    f= -1.24270D+01    |proj g|=  1.13217D-01

At iterate  278    f= -1.24275D+01    |proj g|=  3.34812D-01

At iterate  279    f= -1.24279D+01    |proj g|=  8.61029D-02

At iterate  280    f= -1.24284D+01    |proj g|=  9.04558D-02

At iterate  281    f= -1.24288D+01    |proj g|=  9.82333D-02

At iterate  282    f= -1.24292D+01    |proj g|=  5.56541D-01

At iterate  283    f= -1.24294D+01    |proj g|=  1.08647D-01

At iterate  284    f= -1.24296D+01    |proj g|=  1.15642D-01

At iterate  285    f= -1.24299D+01    |proj g|=  6.67406D-01

At iterate  286    f= -1.24304D+01    |proj g|=  9.60496D-02

At iterate  287    f= -1.24306D+01    |proj g|=  1.64080D-01

At iterate  288    f= -1.24310D+01    |proj g|=  1.20521D-01

At iterate  289    f= -1.24310D+01    |proj g|=  1.29832D-01

At iterate  290    f= -1.24314D+01    |proj g|=  3.30377D-01

At iterate  291    f= -1.24315D+01    |proj g|=  2.79379D-01

At iterate  292    f= -1.24316D+01    |proj g|=  3.30377D-01

At iterate  293    f= -1.24320D+01    |proj g|=  8.78296D-02

At iterate  294    f= -1.24322D+01    |proj g|=  5.52106D-01

At iterate  295    f= -1.24325D+01    |proj g|=  7.73836D-01

At iterate  296    f= -1.24329D+01    |proj g|=  2.79379D-01

At iterate  297    f= -1.24332D+01    |proj g|=  2.79379D-01

At iterate  298    f= -1.24333D+01    |proj g|=  2.74945D-01

At iterate  299    f= -1.24337D+01    |proj g|=  1.08647D-01

At iterate  300    f= -1.24339D+01    |proj g|=  1.13082D-01

At iterate  301    f= -1.24342D+01    |proj g|=  3.30377D-01

At iterate  302    f= -1.24347D+01    |proj g|=  5.52106D-01

At iterate  303    f= -1.24350D+01    |proj g|=  8.83707D-02

At iterate  304    f= -1.24353D+01    |proj g|=  1.08647D-01

At iterate  305    f= -1.24356D+01    |proj g|=  9.67402D-02

At iterate  306    f= -1.24359D+01    |proj g|=  7.92774D-02

At iterate  307    f= -1.24363D+01    |proj g|=  3.90244D-01

At iterate  308    f= -1.24364D+01    |proj g|=  9.25103D-02

At iterate  309    f= -1.24366D+01    |proj g|=  3.90244D-01

At iterate  310    f= -1.24367D+01    |proj g|=  8.97145D-02

At iterate  311    f= -1.24371D+01    |proj g|=  2.74945D-01

At iterate  312    f= -1.24373D+01    |proj g|=  1.08647D-01

At iterate  313    f= -1.24375D+01    |proj g|=  2.74945D-01

At iterate  314    f= -1.24377D+01    |proj g|=  5.56541D-01

At iterate  315    f= -1.24379D+01    |proj g|=  2.74945D-01

At iterate  316    f= -1.24381D+01    |proj g|=  9.24096D-02

At iterate  317    f= -1.24382D+01    |proj g|=  1.13082D-01

At iterate  318    f= -1.24384D+01    |proj g|=  2.74945D-01

At iterate  319    f= -1.24388D+01    |proj g|=  3.30377D-01

At iterate  320    f= -1.24391D+01    |proj g|=  3.34812D-01

At iterate  321    f= -1.24392D+01    |proj g|=  1.13082D-01

At iterate  322    f= -1.24393D+01    |proj g|=  1.64080D-01

At iterate  323    f= -1.24396D+01    |proj g|=  2.79379D-01

At iterate  324    f= -1.24397D+01    |proj g|=  8.30631D-02

At iterate  325    f= -1.24400D+01    |proj g|=  2.19512D-01

At iterate  326    f= -1.24401D+01    |proj g|=  5.52106D-01

At iterate  327    f= -1.24405D+01    |proj g|=  2.19512D-01

At iterate  328    f= -1.24409D+01    |proj g|=  1.64080D-01

At iterate  329    f= -1.24410D+01    |proj g|=  2.74945D-01

At iterate  330    f= -1.24413D+01    |proj g|=  8.53997D-02

At iterate  331    f= -1.24415D+01    |proj g|=  6.11973D-01

At iterate  332    f= -1.24417D+01    |proj g|=  1.64080D-01

At iterate  333    f= -1.24419D+01    |proj g|=  1.13082D-01

At iterate  334    f= -1.24422D+01    |proj g|=  1.08647D-01

At iterate  335    f= -1.24423D+01    |proj g|=  2.23947D-01

At iterate  336    f= -1.24426D+01    |proj g|=  3.30377D-01

At iterate  337    f= -1.24428D+01    |proj g|=  8.01420D-02

At iterate  338    f= -1.24430D+01    |proj g|=  1.13082D-01

At iterate  339    f= -1.24432D+01    |proj g|=  7.03279D-02

At iterate  340    f= -1.24434D+01    |proj g|=  7.31635D-02

At iterate  341    f= -1.24436D+01    |proj g|=  1.64080D-01

At iterate  342    f= -1.24438D+01    |proj g|=  5.52106D-01

At iterate  343    f= -1.24441D+01    |proj g|=  2.19512D-01

At iterate  344    f= -1.24445D+01    |proj g|=  3.85809D-01

At iterate  345    f= -1.24448D+01    |proj g|=  5.01109D-01

At iterate  346    f= -1.24450D+01    |proj g|=  2.23947D-01

At iterate  347    f= -1.24453D+01    |proj g|=  2.79379D-01

At iterate  348    f= -1.24454D+01    |proj g|=  4.96674D-01

At iterate  349    f= -1.24458D+01    |proj g|=  1.64080D-01

At iterate  350    f= -1.24461D+01    |proj g|=  2.79379D-01

At iterate  351    f= -1.24463D+01    |proj g|=  2.19512D-01

At iterate  352    f= -1.24464D+01    |proj g|=  2.74945D-01

At iterate  353    f= -1.24467D+01    |proj g|=  2.23947D-01

At iterate  354    f= -1.24467D+01    |proj g|=  6.11973D-01

At iterate  355    f= -1.24470D+01    |proj g|=  2.23947D-01

At iterate  356    f= -1.24471D+01    |proj g|=  3.85809D-01

At iterate  357    f= -1.24473D+01    |proj g|=  9.88299D-02

At iterate  358    f= -1.24475D+01    |proj g|=  2.79379D-01

At iterate  359    f= -1.24476D+01    |proj g|=  8.12611D-02

At iterate  360    f= -1.24479D+01    |proj g|=  2.23947D-01

At iterate  361    f= -1.24479D+01    |proj g|=  3.30377D-01

At iterate  362    f= -1.24481D+01    |proj g|=  2.74945D-01

At iterate  363    f= -1.24481D+01    |proj g|=  8.86237D-02

At iterate  364    f= -1.24484D+01    |proj g|=  8.51648D-02

At iterate  365    f= -1.24484D+01    |proj g|=  2.74945D-01

At iterate  366    f= -1.24487D+01    |proj g|=  1.08647D-01

At iterate  367    f= -1.24487D+01    |proj g|=  1.13082D-01

At iterate  368    f= -1.24490D+01    |proj g|=  6.11973D-01

At iterate  369    f= -1.24491D+01    |proj g|=  1.02417D-01

At iterate  370    f= -1.24492D+01    |proj g|=  1.08647D-01

At iterate  371    f= -1.24493D+01    |proj g|=  1.68514D-01

At iterate  372    f= -1.24494D+01    |proj g|=  2.23947D-01

At iterate  373    f= -1.24495D+01    |proj g|=  2.79379D-01

At iterate  374    f= -1.24496D+01    |proj g|=  3.30377D-01

At iterate  375    f= -1.24497D+01    |proj g|=  7.73836D-01

At iterate  376    f= -1.24498D+01    |proj g|=  9.13056D-02

At iterate  377    f= -1.24499D+01    |proj g|=  1.68514D-01

At iterate  378    f= -1.24500D+01    |proj g|=  1.03760D-01

At iterate  379    f= -1.24501D+01    |proj g|=  2.79379D-01

At iterate  380    f= -1.24502D+01    |proj g|=  2.79379D-01

At iterate  381    f= -1.24504D+01    |proj g|=  3.30377D-01

At iterate  382    f= -1.24505D+01    |proj g|=  1.13082D-01

At iterate  383    f= -1.24507D+01    |proj g|=  4.41242D-01

At iterate  384    f= -1.24508D+01    |proj g|=  3.34812D-01

At iterate  385    f= -1.24510D+01    |proj g|=  3.90244D-01

At iterate  386    f= -1.24510D+01    |proj g|=  1.13082D-01

At iterate  387    f= -1.24511D+01    |proj g|=  9.92518D-02

At iterate  388    f= -1.24512D+01    |proj g|=  1.14530D-01

At iterate  389    f= -1.24512D+01    |proj g|=  1.68514D-01

At iterate  390    f= -1.24513D+01    |proj g|=  3.30377D-01

At iterate  391    f= -1.24513D+01    |proj g|=  3.34812D-01

At iterate  392    f= -1.24514D+01    |proj g|=  3.90244D-01

At iterate  393    f= -1.24514D+01    |proj g|=  2.19512D-01

At iterate  394    f= -1.24514D+01    |proj g|=  2.74945D-01

At iterate  395    f= -1.24515D+01    |proj g|=  1.68514D-01

At iterate  396    f= -1.24515D+01    |proj g|=  1.13082D-01

At iterate  397    f= -1.24516D+01    |proj g|=  8.73511D-02

At iterate  398    f= -1.24516D+01    |proj g|=  3.30377D-01

At iterate  399    f= -1.24516D+01    |proj g|=  1.64080D-01

At iterate  400    f= -1.24517D+01    |proj g|=  2.23947D-01

At iterate  401    f= -1.24517D+01    |proj g|=  1.68514D-01

At iterate  402    f= -1.24517D+01    |proj g|=  2.19512D-01

At iterate  403    f= -1.24518D+01    |proj g|=  3.30377D-01

At iterate  404    f= -1.24519D+01    |proj g|=  4.41242D-01

At iterate  405    f= -1.24520D+01    |proj g|=  6.62971D-01

At iterate  406    f= -1.24521D+01    |proj g|=  1.64080D-01

At iterate  407    f= -1.24522D+01    |proj g|=  1.68514D-01

At iterate  408    f= -1.24522D+01    |proj g|=  2.79379D-01

At iterate  409    f= -1.24523D+01    |proj g|=  2.74945D-01

At iterate  410    f= -1.24524D+01    |proj g|=  3.85809D-01

At iterate  411    f= -1.24525D+01    |proj g|=  1.64080D-01

At iterate  412    f= -1.24527D+01    |proj g|=  9.78704D-02

At iterate  413    f= -1.24528D+01    |proj g|=  1.02503D-01

At iterate  414    f= -1.24529D+01    |proj g|=  4.96674D-01

At iterate  415    f= -1.24531D+01    |proj g|=  1.68514D-01

At iterate  416    f= -1.24533D+01    |proj g|=  5.01109D-01

At iterate  417    f= -1.24535D+01    |proj g|=  2.79379D-01

At iterate  418    f= -1.24537D+01    |proj g|=  2.79379D-01

At iterate  419    f= -1.24537D+01    |proj g|=  3.30377D-01

At iterate  420    f= -1.24539D+01    |proj g|=  2.23947D-01

At iterate  421    f= -1.24539D+01    |proj g|=  9.02015D-02

At iterate  422    f= -1.24541D+01    |proj g|=  1.13082D-01

At iterate  423    f= -1.24542D+01    |proj g|=  1.00365D-01

At iterate  424    f= -1.24544D+01    |proj g|=  5.01109D-01

At iterate  425    f= -1.24544D+01    |proj g|=  9.89538D-02

At iterate  426    f= -1.24545D+01    |proj g|=  1.08647D-01

At iterate  427    f= -1.24546D+01    |proj g|=  4.41242D-01

At iterate  428    f= -1.24547D+01    |proj g|=  4.96674D-01

At iterate  429    f= -1.24547D+01    |proj g|=  5.01109D-01

At iterate  430    f= -1.24548D+01    |proj g|=  1.13082D-01

At iterate  431    f= -1.24548D+01    |proj g|=  5.52106D-01

At iterate  432    f= -1.24549D+01    |proj g|=  1.68514D-01

At iterate  433    f= -1.24550D+01    |proj g|=  8.64322D-02

At iterate  434    f= -1.24551D+01    |proj g|=  2.74945D-01

At iterate  435    f= -1.24553D+01    |proj g|=  1.08647D-01

At iterate  436    f= -1.24555D+01    |proj g|=  1.64080D-01

At iterate  437    f= -1.24556D+01    |proj g|=  1.64080D-01

At iterate  438    f= -1.24557D+01    |proj g|=  1.68514D-01

At iterate  439    f= -1.24558D+01    |proj g|=  1.13177D-01

At iterate  440    f= -1.24559D+01    |proj g|=  2.74945D-01

At iterate  441    f= -1.24559D+01    |proj g|=  1.68514D-01

At iterate  442    f= -1.24560D+01    |proj g|=  3.90244D-01

At iterate  443    f= -1.24561D+01    |proj g|=  2.23947D-01

At iterate  444    f= -1.24561D+01    |proj g|=  3.85809D-01

At iterate  445    f= -1.24562D+01    |proj g|=  1.64080D-01

At iterate  446    f= -1.24562D+01    |proj g|=  5.56541D-01

At iterate  447    f= -1.24563D+01    |proj g|=  9.17167D-02

At iterate  448    f= -1.24563D+01    |proj g|=  1.13082D-01

At iterate  449    f= -1.24564D+01    |proj g|=  1.68514D-01

At iterate  450    f= -1.24564D+01    |proj g|=  3.30377D-01

At iterate  451    f= -1.24565D+01    |proj g|=  1.64080D-01

At iterate  452    f= -1.24565D+01    |proj g|=  1.68514D-01

At iterate  453    f= -1.24566D+01    |proj g|=  2.23947D-01

At iterate  454    f= -1.24566D+01    |proj g|=  5.52106D-01

At iterate  455    f= -1.24567D+01    |proj g|=  5.52106D-01

At iterate  456    f= -1.24568D+01    |proj g|=  3.30377D-01

At iterate  457    f= -1.24569D+01    |proj g|=  3.30377D-01

At iterate  458    f= -1.24570D+01    |proj g|=  8.47447D-02

At iterate  459    f= -1.24572D+01    |proj g|=  2.19512D-01

At iterate  460    f= -1.24574D+01    |proj g|=  4.41242D-01

At iterate  461    f= -1.24575D+01    |proj g|=  8.41415D-02

At iterate  462    f= -1.24576D+01    |proj g|=  7.98774D-02

At iterate  463    f= -1.24577D+01    |proj g|=  2.79379D-01

At iterate  464    f= -1.24578D+01    |proj g|=  2.74945D-01

At iterate  465    f= -1.24579D+01    |proj g|=  5.01109D-01

At iterate  466    f= -1.24580D+01    |proj g|=  3.34812D-01

At iterate  467    f= -1.24582D+01    |proj g|=  1.68514D-01

At iterate  468    f= -1.24584D+01    |proj g|=  2.19512D-01

At iterate  469    f= -1.24585D+01    |proj g|=  1.13082D-01

At iterate  470    f= -1.24587D+01    |proj g|=  1.13082D-01

At iterate  471    f= -1.24588D+01    |proj g|=  2.23947D-01

At iterate  472    f= -1.24589D+01    |proj g|=  2.74945D-01

At iterate  473    f= -1.24590D+01    |proj g|=  4.41242D-01

At iterate  474    f= -1.24591D+01    |proj g|=  2.79379D-01

At iterate  475    f= -1.24592D+01    |proj g|=  1.68514D-01

At iterate  476    f= -1.24594D+01    |proj g|=  3.85809D-01

At iterate  477    f= -1.24594D+01    |proj g|=  1.64080D-01

At iterate  478    f= -1.24595D+01    |proj g|=  2.79379D-01

At iterate  479    f= -1.24596D+01    |proj g|=  1.64080D-01

At iterate  480    f= -1.24597D+01    |proj g|=  3.30377D-01

At iterate  481    f= -1.24597D+01    |proj g|=  3.90244D-01

At iterate  482    f= -1.24598D+01    |proj g|=  3.34812D-01

At iterate  483    f= -1.24598D+01    |proj g|=  2.74945D-01

At iterate  484    f= -1.24599D+01    |proj g|=  1.08647D-01

At iterate  485    f= -1.24601D+01    |proj g|=  1.13082D-01

At iterate  486    f= -1.24602D+01    |proj g|=  3.30377D-01

At iterate  487    f= -1.24602D+01    |proj g|=  6.07539D-01

At iterate  488    f= -1.24603D+01    |proj g|=  7.95621D-02

At iterate  489    f= -1.24604D+01    |proj g|=  7.22838D-01

At iterate  490    f= -1.24605D+01    |proj g|=  3.90244D-01

At iterate  491    f= -1.24605D+01    |proj g|=  6.07539D-01

At iterate  492    f= -1.24606D+01    |proj g|=  1.64080D-01

At iterate  493    f= -1.24606D+01    |proj g|=  3.90244D-01

At iterate  494    f= -1.24608D+01    |proj g|=  3.34812D-01

At iterate  495    f= -1.24608D+01    |proj g|=  4.96674D-01

At iterate  496    f= -1.24609D+01    |proj g|=  1.64080D-01

At iterate  497    f= -1.24610D+01    |proj g|=  8.93479D-02

At iterate  498    f= -1.24610D+01    |proj g|=  8.52269D-02

At iterate  499    f= -1.24611D+01    |proj g|=  2.19512D-01

At iterate  500    f= -1.24612D+01    |proj g|=  1.08647D-01

At iterate  501    f= -1.24613D+01    |proj g|=  1.16334D-01

At iterate  502    f= -1.24614D+01    |proj g|=  3.30377D-01

At iterate  503    f= -1.24614D+01    |proj g|=  1.19664D-01

At iterate  504    f= -1.24615D+01    |proj g|=  1.68514D-01

At iterate  505    f= -1.24616D+01    |proj g|=  3.90244D-01

At iterate  506    f= -1.24617D+01    |proj g|=  3.34812D-01

At iterate  507    f= -1.24618D+01    |proj g|=  4.96674D-01

At iterate  508    f= -1.24619D+01    |proj g|=  2.74945D-01

At iterate  509    f= -1.24619D+01    |proj g|=  3.90244D-01

At iterate  510    f= -1.24620D+01    |proj g|=  6.11973D-01

At iterate  511    f= -1.24621D+01    |proj g|=  4.41242D-01

At iterate  512    f= -1.24622D+01    |proj g|=  1.08647D-01

At iterate  513    f= -1.24623D+01    |proj g|=  5.01109D-01

At iterate  514    f= -1.24624D+01    |proj g|=  3.34812D-01

At iterate  515    f= -1.24625D+01    |proj g|=  1.08647D-01

At iterate  516    f= -1.24626D+01    |proj g|=  4.96674D-01

At iterate  517    f= -1.24626D+01    |proj g|=  8.84701D-01

At iterate  518    f= -1.24627D+01    |proj g|=  1.08647D-01

At iterate  519    f= -1.24628D+01    |proj g|=  2.74945D-01

At iterate  520    f= -1.24629D+01    |proj g|=  7.73836D-01

At iterate  521    f= -1.24629D+01    |proj g|=  9.86814D-02

At iterate  522    f= -1.24630D+01    |proj g|=  3.34812D-01

At iterate  523    f= -1.24631D+01    |proj g|=  4.45676D-01

At iterate  524    f= -1.24632D+01    |proj g|=  1.13082D-01

