*-*-*- MFCC *-*-*-
**** window 21 *****
(9472, 32)
redundant frames = 1
train frames:  (451, 21, 32)
---- PCA fit with components 100 ----
area under curve:  57.035642570281134
EER:  43.25301204819277
(9472, 32)
redundant frames = 1
train frames:  (451, 21, 32)
---- PCA fit with components 50 ----
area under curve:  55.68796017402945
EER:  43.739959839357425
(9472, 32)
redundant frames = 1
train frames:  (451, 21, 32)
---- PCA fit with components 30 ----
area under curve:  62.874518908969215
EER:  39.55572289156626
(9472, 32)
redundant frames = 1
train frames:  (451, 21, 32)
---- PCA fit with components 20 ----
area under curve:  65.78355087014725
EER:  37.535140562249
(9472, 32)
redundant frames = 1
train frames:  (451, 21, 32)
---- PCA fit with components 10 ----
area under curve:  69.12504183400267
EER:  37.123493975903614
**** window 31 *****
(9472, 32)
redundant frames = 17
train frames:  (305, 31, 32)
---- PCA fit with components 100 ----
area under curve:  68.96293507362785
EER:  35.56726907630522
(9472, 32)
redundant frames = 17
train frames:  (305, 31, 32)
---- PCA fit with components 50 ----
area under curve:  71.43061830655955
EER:  33.34839357429719
(9472, 32)
redundant frames = 17
train frames:  (305, 31, 32)
---- PCA fit with components 30 ----
area under curve:  61.62242720883534
EER:  41.66666666666667
(9472, 32)
redundant frames = 17
train frames:  (305, 31, 32)
---- PCA fit with components 20 ----
area under curve:  57.97345632530121
EER:  43.76255020080321
(9472, 32)
redundant frames = 17
train frames:  (305, 31, 32)
---- PCA fit with components 10 ----
area under curve:  57.44174615127176
EER:  44.13403614457832
**** window 41 *****
(9472, 32)
redundant frames = 1
train frames:  (231, 41, 32)
---- PCA fit with components 100 ----
area under curve:  43.73232513386881
EER:  51.68674698795181
(9472, 32)
redundant frames = 1
train frames:  (231, 41, 32)
---- PCA fit with components 50 ----
area under curve:  39.15286144578314
EER:  56.32530120481928
(9472, 32)
redundant frames = 1
train frames:  (231, 41, 32)
---- PCA fit with components 30 ----
area under curve:  37.760416666666664
EER:  59.467871485943775
(9472, 32)
redundant frames = 1
train frames:  (231, 41, 32)
---- PCA fit with components 20 ----
area under curve:  40.7557312583668
EER:  57.88654618473896
(9472, 32)
redundant frames = 1
train frames:  (231, 41, 32)
---- PCA fit with components 10 ----
area under curve:  37.1412734270415
EER:  57.828815261044184
**** window 51 *****
(9472, 32)
redundant frames = 37
train frames:  (185, 51, 32)
---- PCA fit with components 100 ----
area under curve:  58.7372406291834
EER:  45.607429718875494
(9472, 32)
redundant frames = 37
train frames:  (185, 51, 32)
---- PCA fit with components 50 ----
area under curve:  56.00788570950469
EER:  47.97690763052209
(9472, 32)
redundant frames = 37
train frames:  (185, 51, 32)
---- PCA fit with components 30 ----
area under curve:  51.76445364792504
EER:  47.90913654618474
(9472, 32)
redundant frames = 37
train frames:  (185, 51, 32)
---- PCA fit with components 20 ----
area under curve:  34.665118808567605
EER:  64.58333333333334
(9472, 32)
redundant frames = 37
train frames:  (185, 51, 32)
---- PCA fit with components 10 ----
area under curve:  30.59174196787149
EER:  62.522590361445786
*-*-*- LOG MEL *-*-*-
**** window 21 *****
(9472, 32)
redundant frames = 1
train frames:  (451, 21, 32)
---- PCA fit with components 100 ----
area under curve:  43.088395247657296
EER:  54.3925702811245
(9472, 32)
redundant frames = 1
train frames:  (451, 21, 32)
---- PCA fit with components 50 ----
area under curve:  44.332433902275774
EER:  52.35692771084338
(9472, 32)
redundant frames = 1
train frames:  (451, 21, 32)
---- PCA fit with components 30 ----
area under curve:  45.78951221552878
EER:  52.08584337349398
(9472, 32)
redundant frames = 1
train frames:  (451, 21, 32)
---- PCA fit with components 20 ----
area under curve:  49.233496485943775
EER:  47.954317269076306
(9472, 32)
redundant frames = 1
train frames:  (451, 21, 32)
---- PCA fit with components 10 ----
area under curve:  41.987010542168676
EER:  52.06074297188755
**** window 31 *****
(9472, 32)
redundant frames = 17
train frames:  (305, 31, 32)
---- PCA fit with components 100 ----
area under curve:  33.761504350736274
EER:  62.377008032128515
(9472, 32)
redundant frames = 17
train frames:  (305, 31, 32)
---- PCA fit with components 50 ----
area under curve:  34.66825635876841
EER:  60.8609437751004
(9472, 32)
redundant frames = 17
train frames:  (305, 31, 32)
---- PCA fit with components 30 ----
area under curve:  35.755522088353416
EER:  62.507530120481924
(9472, 32)
redundant frames = 17
train frames:  (305, 31, 32)
---- PCA fit with components 20 ----
area under curve:  37.679572456492636
EER:  60.41666666666667
(9472, 32)
redundant frames = 17
train frames:  (305, 31, 32)
---- PCA fit with components 10 ----
area under curve:  39.27679467871486
EER:  56.267570281124506
**** window 41 *****
(9472, 32)
redundant frames = 1
train frames:  (231, 41, 32)
---- PCA fit with components 100 ----
area under curve:  48.001380522088354
EER:  60.494477911646584
(9472, 32)
redundant frames = 1
train frames:  (231, 41, 32)
---- PCA fit with components 50 ----
area under curve:  47.10801539491298
EER:  60.56977911646586
(9472, 32)
redundant frames = 1
train frames:  (231, 41, 32)
---- PCA fit with components 30 ----
area under curve:  46.19268741633199
EER:  61.98293172690763
(9472, 32)
redundant frames = 1
train frames:  (231, 41, 32)
---- PCA fit with components 20 ----
area under curve:  46.59826807228916
EER:  60.37901606425703
(9472, 32)
redundant frames = 1
train frames:  (231, 41, 32)
---- PCA fit with components 10 ----
area under curve:  45.76514390896921
EER:  54.264558232931726
**** window 51 *****
(9472, 32)
redundant frames = 37
train frames:  (185, 51, 32)
---- PCA fit with components 100 ----
area under curve:  35.68053463855422
EER:  60.44929718875502
(9472, 32)
redundant frames = 37
train frames:  (185, 51, 32)
---- PCA fit with components 50 ----
area under curve:  33.866089357429715
EER:  62.517570281124506
(9472, 32)
redundant frames = 37
train frames:  (185, 51, 32)
---- PCA fit with components 30 ----
area under curve:  34.91570448460509
EER:  58.58684738955823
(9472, 32)
redundant frames = 37
train frames:  (185, 51, 32)
---- PCA fit with components 20 ----
area under curve:  34.66166750334671
EER:  58.506526104417674
(9472, 32)
redundant frames = 37
train frames:  (185, 51, 32)
---- PCA fit with components 10 ----
area under curve:  36.24581659973226
EER:  60.33383534136546
